name: Services
description: |-

  Endpoints for browsing available services.
endpoints:
  -
    custom: []
    httpMethods:
      - GET
    uri: api/services
    metadata:
      custom: []
      groupName: Services
      groupDescription: |-

        Endpoints for browsing available services.
      subgroup: ''
      subgroupDescription: ''
      title: 'List Services'
      description: 'Retrieve a paginated list of active services. Supports filtering by category slug and searching by name.'
      authenticated: false
      deprecated: false
    headers:
      Content-Type: application/json
      Accept: application/json
    urlParameters: []
    cleanUrlParameters: []
    queryParameters:
      category:
        custom: []
        name: category
        description: 'Filter services by category slug.'
        required: false
        example: coiffure
        type: string
        enumValues: []
        exampleWasSpecified: true
        nullable: false
        deprecated: false
      search:
        custom: []
        name: search
        description: 'Search services by name.'
        required: false
        example: coupe
        type: string
        enumValues: []
        exampleWasSpecified: true
        nullable: false
        deprecated: false
      per_page:
        custom: []
        name: per_page
        description: 'Number of results per page. Defaults to 15.'
        required: false
        example: 10
        type: integer
        enumValues: []
        exampleWasSpecified: true
        nullable: false
        deprecated: false
    cleanQueryParameters:
      category: coiffure
      search: coupe
      per_page: 10
    bodyParameters: []
    cleanBodyParameters: []
    fileParameters: []
    responses:
      -
        custom: []
        status: 200
        content: |-
          {
            "data": [
              {
                "id": 1,
                "name": "Coupe homme",
                "slug": "coupe-homme",
                "description": "Coupe classique pour homme",
                "price": 25.00,
                "duration": 30,
                "is_active": true,
                "category": {
                  "id": 1,
                  "name": "Coiffure",
                  "slug": "coiffure"
                },
                "providers_count": 4
              }
            ],
            "links": {
              "first": "http://localhost/api/services?page=1",
              "last": "http://localhost/api/services?page=3",
              "prev": null,
              "next": "http://localhost/api/services?page=2"
            },
            "meta": {
              "current_page": 1,
              "last_page": 3,
              "per_page": 15,
              "total": 42
            }
          }
        headers: []
        description: ''
    responseFields: []
    auth: []
    controller: null
    method: null
    route: null
  -
    custom: []
    httpMethods:
      - GET
    uri: 'api/services/{service_slug}'
    metadata:
      custom: []
      groupName: Services
      groupDescription: |-

        Endpoints for browsing available services.
      subgroup: ''
      subgroupDescription: ''
      title: 'Show Service'
      description: 'Retrieve a single service with its category and provider count.'
      authenticated: false
      deprecated: false
    headers:
      Content-Type: application/json
      Accept: application/json
    urlParameters:
      service_slug:
        custom: []
        name: service_slug
        description: 'The slug of the service.'
        required: true
        example: 1
        type: integer
        enumValues: []
        exampleWasSpecified: false
        nullable: false
        deprecated: false
      service:
        custom: []
        name: service
        description: 'The ID of the service.'
        required: true
        example: 1
        type: integer
        enumValues: []
        exampleWasSpecified: true
        nullable: false
        deprecated: false
    cleanUrlParameters:
      service_slug: 1
      service: 1
    queryParameters: []
    cleanQueryParameters: []
    bodyParameters: []
    cleanBodyParameters: []
    fileParameters: []
    responses:
      -
        custom: []
        status: 200
        content: |-
          {
            "data": {
              "id": 1,
              "name": "Coupe homme",
              "slug": "coupe-homme",
              "description": "Coupe classique pour homme",
              "price": 25.00,
              "duration": 30,
              "is_active": true,
              "category": {
                "id": 1,
                "name": "Coiffure",
                "slug": "coiffure"
              },
              "providers_count": 4
            }
          }
        headers: []
        description: ''
      -
        custom: []
        status: 404
        content: |-
          {
            "message": "No query results for model [App\\Models\\Service]."
          }
        headers: []
        description: ''
    responseFields: []
    auth: []
    controller: null
    method: null
    route: null
