name: Providers
description: |-

  Endpoints for browsing service providers and their available time slots.
endpoints:
  -
    custom: []
    httpMethods:
      - GET
    uri: api/providers
    metadata:
      custom: []
      groupName: Providers
      groupDescription: |-

        Endpoints for browsing service providers and their available time slots.
      subgroup: ''
      subgroupDescription: ''
      title: 'List Providers'
      description: 'Retrieve a paginated list of active providers. Supports filtering by service and searching by provider name.'
      authenticated: false
      deprecated: false
    headers:
      Content-Type: application/json
      Accept: application/json
    urlParameters: []
    cleanUrlParameters: []
    queryParameters:
      service_id:
        custom: []
        name: service_id
        description: 'Filter providers by service ID.'
        required: false
        example: 1
        type: integer
        enumValues: []
        exampleWasSpecified: true
        nullable: false
        deprecated: false
      search:
        custom: []
        name: search
        description: 'Search providers by name.'
        required: false
        example: Martin
        type: string
        enumValues: []
        exampleWasSpecified: true
        nullable: false
        deprecated: false
      per_page:
        custom: []
        name: per_page
        description: 'Number of results per page. Defaults to 15.'
        required: false
        example: 10
        type: integer
        enumValues: []
        exampleWasSpecified: true
        nullable: false
        deprecated: false
    cleanQueryParameters:
      service_id: 1
      search: Martin
      per_page: 10
    bodyParameters: []
    cleanBodyParameters: []
    fileParameters: []
    responses:
      -
        custom: []
        status: 200
        content: |-
          {
            "data": [
              {
                "id": 1,
                "bio": "Coiffeur professionnel depuis 10 ans.",
                "is_active": true,
                "user": {
                  "id": 2,
                  "name": "Pierre Martin",
                  "email": "pierre@example.com"
                },
                "services": [
                  {
                    "id": 1,
                    "name": "Coupe homme",
                    "price": 25.00
                  }
                ],
                "available_slots_count": 12
              }
            ],
            "links": {
              "first": "http://localhost/api/providers?page=1",
              "last": "http://localhost/api/providers?page=2",
              "prev": null,
              "next": "http://localhost/api/providers?page=2"
            },
            "meta": {
              "current_page": 1,
              "last_page": 2,
              "per_page": 15,
              "total": 20
            }
          }
        headers: []
        description: ''
    responseFields: []
    auth: []
    controller: null
    method: null
    route: null
  -
    custom: []
    httpMethods:
      - GET
    uri: 'api/providers/{provider_id}'
    metadata:
      custom: []
      groupName: Providers
      groupDescription: |-

        Endpoints for browsing service providers and their available time slots.
      subgroup: ''
      subgroupDescription: ''
      title: 'Show Provider'
      description: 'Retrieve a single provider with their user profile, services, and available slot count.'
      authenticated: false
      deprecated: false
    headers:
      Content-Type: application/json
      Accept: application/json
    urlParameters:
      provider_id:
        custom: []
        name: provider_id
        description: 'The ID of the provider.'
        required: true
        example: 1
        type: integer
        enumValues: []
        exampleWasSpecified: false
        nullable: false
        deprecated: false
      provider:
        custom: []
        name: provider
        description: 'The ID of the provider.'
        required: true
        example: 1
        type: integer
        enumValues: []
        exampleWasSpecified: true
        nullable: false
        deprecated: false
    cleanUrlParameters:
      provider_id: 1
      provider: 1
    queryParameters: []
    cleanQueryParameters: []
    bodyParameters: []
    cleanBodyParameters: []
    fileParameters: []
    responses:
      -
        custom: []
        status: 200
        content: |-
          {
            "data": {
              "id": 1,
              "bio": "Coiffeur professionnel depuis 10 ans.",
              "is_active": true,
              "user": {
                "id": 2,
                "name": "Pierre Martin",
                "email": "pierre@example.com"
              },
              "services": [
                {
                  "id": 1,
                  "name": "Coupe homme",
                  "price": 25.00
                }
              ],
              "available_slots_count": 12
            }
          }
        headers: []
        description: ''
      -
        custom: []
        status: 404
        content: |-
          {
            "message": "No query results for model [App\\Models\\Provider]."
          }
        headers: []
        description: ''
    responseFields: []
    auth: []
    controller: null
    method: null
    route: null
  -
    custom: []
    httpMethods:
      - GET
    uri: 'api/providers/{provider_id}/slots'
    metadata:
      custom: []
      groupName: Providers
      groupDescription: |-

        Endpoints for browsing service providers and their available time slots.
      subgroup: ''
      subgroupDescription: ''
      title: 'List Available Slots'
      description: 'Retrieve available time slots for a specific provider. Only future slots marked as available are returned.'
      authenticated: false
      deprecated: false
    headers:
      Content-Type: application/json
      Accept: application/json
    urlParameters:
      provider_id:
        custom: []
        name: provider_id
        description: 'The ID of the provider.'
        required: true
        example: 1
        type: integer
        enumValues: []
        exampleWasSpecified: false
        nullable: false
        deprecated: false
      provider:
        custom: []
        name: provider
        description: 'The ID of the provider.'
        required: true
        example: 1
        type: integer
        enumValues: []
        exampleWasSpecified: true
        nullable: false
        deprecated: false
    cleanUrlParameters:
      provider_id: 1
      provider: 1
    queryParameters:
      date:
        custom: []
        name: date
        description: 'Filter slots by a specific date (YYYY-MM-DD).'
        required: false
        example: '2026-03-01'
        type: string
        enumValues: []
        exampleWasSpecified: true
        nullable: false
        deprecated: false
    cleanQueryParameters:
      date: '2026-03-01'
    bodyParameters: []
    cleanBodyParameters: []
    fileParameters: []
    responses:
      -
        custom: []
        status: 200
        content: |-
          {
            "data": [
              {
                "id": 1,
                "provider_id": 1,
                "date": "2026-03-01",
                "start_time": "09:00:00",
                "end_time": "09:30:00",
                "is_available": true
              },
              {
                "id": 2,
                "provider_id": 1,
                "date": "2026-03-01",
                "start_time": "09:30:00",
                "end_time": "10:00:00",
                "is_available": true
              }
            ]
          }
        headers: []
        description: ''
      -
        custom: []
        status: 404
        content: |-
          {
            "message": "No query results for model [App\\Models\\Provider]."
          }
        headers: []
        description: ''
    responseFields: []
    auth: []
    controller: null
    method: null
    route: null
